%YAML 1.1
%TAG !u! tag:unity3d.com,2011:
--- !u!1 &5939194321574282584
GameObject:
  m_ObjectHideFlags: 0
  m_CorrespondingSourceObject: {fileID: 0}
  m_PrefabInstance: {fileID: 0}
  m_PrefabAsset: {fileID: 0}
  serializedVersion: 6
  m_Component:
  - component: {fileID: 5939194321574282591}
  - component: {fileID: 816608285}
  - component: {fileID: 814436333}
  m_Layer: 0
  m_Name: ballParent
  m_TagString: Untagged
  m_Icon: {fileID: 0}
  m_NavMeshLayer: 0
  m_StaticEditorFlags: 0
  m_IsActive: 1
--- !u!4 &5939194321574282591
Transform:
  m_ObjectHideFlags: 0
  m_CorrespondingSourceObject: {fileID: 0}
  m_PrefabInstance: {fileID: 0}
  m_PrefabAsset: {fileID: 0}
  m_GameObject: {fileID: 5939194321574282584}
  m_LocalRotation: {x: 0, y: 0, z: 0, w: 1}
  m_LocalPosition: {x: 0, y: 0, z: 0}
  m_LocalScale: {x: 1, y: 1, z: 1}
  m_Children:
  - {fileID: 5939194322645748097}
  m_Father: {fileID: 0}
  m_RootOrder: 0
  m_LocalEulerAnglesHint: {x: 0, y: 0, z: 0}
--- !u!114 &816608285
MonoBehaviour:
  m_ObjectHideFlags: 0
  m_CorrespondingSourceObject: {fileID: 0}
  m_PrefabInstance: {fileID: 0}
  m_PrefabAsset: {fileID: 0}
  m_GameObject: {fileID: 5939194321574282584}
  m_Enabled: 1
  m_EditorHideFlags: 0
  m_Script: {fileID: 11500000, guid: b098f4f20c845064592f13c892d4c37d, type: 3}
  m_Name: 
  m_EditorClassIdentifier: 
--- !u!54 &814436333
Rigidbody:
  m_ObjectHideFlags: 0
  m_CorrespondingSourceObject: {fileID: 0}
  m_PrefabInstance: {fileID: 0}
  m_PrefabAsset: {fileID: 0}
  m_GameObject: {fileID: 5939194321574282584}
  serializedVersion: 2
  m_Mass: 1
  m_Drag: 0
  m_AngularDrag: 0.05
  m_UseGravity: 1
  m_IsKinematic: 0
  m_Interpolate: 0
  m_Constraints: 72
  m_CollisionDetection: 1
--- !u!1001 &435389160707684614
PrefabInstance:
  m_ObjectHideFlags: 0
  serializedVersion: 2
  m_Modification:
    m_TransformParent: {fileID: 5939194321574282591}
    m_Modifications:
    - target: {fileID: 6081708765623120004, guid: 6e695fa1a5537264e9bdb92b929f81e4,
        type: 3}
      propertyPath: m_Name
      value: ball
      objectReference: {fileID: 0}
    - target: {fileID: 6081708765623120007, guid: 6e695fa1a5537264e9bdb92b929f81e4,
        type: 3}
      propertyPath: m_LocalPosition.x
      value: 0
      objectReference: {fileID: 0}
    - target: {fileID: 6081708765623120007, guid: 6e695fa1a5537264e9bdb92b929f81e4,
        type: 3}
      propertyPath: m_LocalPosition.y
      value: 0
      objectReference: {fileID: 0}
    - target: {fileID: 6081708765623120007, guid: 6e695fa1a5537264e9bdb92b929f81e4,
        type: 3}
      propertyPath: m_LocalPosition.z
      value: 0
      objectReference: {fileID: 0}
    - target: {fileID: 6081708765623120007, guid: 6e695fa1a5537264e9bdb92b929f81e4,
        type: 3}
      propertyPath: m_LocalRotation.x
      value: 0
      objectReference: {fileID: 0}
    - target: {fileID: 6081708765623120007, guid: 6e695fa1a5537264e9bdb92b929f81e4,
        type: 3}
      propertyPath: m_LocalRotation.y
      value: 0
      objectReference: {fileID: 0}
    - target: {fileID: 6081708765623120007, guid: 6e695fa1a5537264e9bdb92b929f81e4,
        type: 3}
      propertyPath: m_LocalRotation.z
      value: 0
      objectReference: {fileID: 0}
    - target: {fileID: 6081708765623120007, guid: 6e695fa1a5537264e9bdb92b929f81e4,
        type: 3}
      propertyPath: m_LocalRotation.w
      value: 1
      objectReference: {fileID: 0}
    - target: {fileID: 6081708765623120007, guid: 6e695fa1a5537264e9bdb92b929f81e4,
        type: 3}
      propertyPath: m_RootOrder
      value: 0
      objectReference: {fileID: 0}
    - target: {fileID: 6081708765623120007, guid: 6e695fa1a5537264e9bdb92b929f81e4,
        type: 3}
      propertyPath: m_LocalEulerAnglesHint.x
      value: 0
      objectReference: {fileID: 0}
    - target: {fileID: 6081708765623120007, guid: 6e695fa1a5537264e9bdb92b929f81e4,
        type: 3}
      propertyPath: m_LocalEulerAnglesHint.y
      value: 0
      objectReference: {fileID: 0}
    - target: {fileID: 6081708765623120007, guid: 6e695fa1a5537264e9bdb92b929f81e4,
        type: 3}
      propertyPath: m_LocalEulerAnglesHint.z
      value: 0
      objectReference: {fileID: 0}
    m_RemovedComponents: []
  m_SourcePrefab: {fileID: 100100000, guid: 6e695fa1a5537264e9bdb92b929f81e4, type: 3}
--- !u!4 &5939194322645748097 stripped
Transform:
  m_CorrespondingSourceObject: {fileID: 6081708765623120007, guid: 6e695fa1a5537264e9bdb92b929f81e4,
    type: 3}
  m_PrefabInstance: {fileID: 435389160707684614}
  m_PrefabAsset: {fileID: 0}
